[gd_scene load_steps=2 format=2]

[ext_resource path="res://addons/gut/plugin_control.gd" type="Script" id=1]

[node name="Gut" type="Control"]
margin_right = 740.0
margin_bottom = 960.0
rect_min_size = Vector2( 740, 250 )
rect_scale = Vector2( 0.73, 1 )
script = ExtResource( 1 )
__meta__ = {
"_edit_use_anchors_": false
}
_run_on_load = true
_export_path = "res://tests/exported_tests.cfg"
_include_subdirectories = true
_directory1 = "res://tests/unit"
_post_run_script = "res://tests/TestingHelpers/PostRunScript.gd"
