[gd_scene load_steps=3 format=2]

[ext_resource path="res://assets/themes/default/default_LineEdit.theme" type="Theme" id=1]
[ext_resource path="res://assets/themes/tempRecoil.tres" type="Theme" id=2]

[node name="DuplicateNames" type="ReferenceRect"]
margin_left = 540.0
margin_top = 4800.0
margin_right = 1080.0
margin_bottom = 5760.0
rect_min_size = Vector2( 540, 960 )
theme = ExtResource( 2 )
__meta__ = {
"_edit_use_anchors_": false,
"_editor_description_": "1,5"
}

[node name="CenterContainer" type="CenterContainer" parent="."]
margin_top = 180.0
margin_right = 540.0
margin_bottom = 1100.0
rect_min_size = Vector2( 540, 920 )
__meta__ = {
"_edit_use_anchors_": false
}

[node name="VBoxContainer" type="VBoxContainer" parent="CenterContainer"]
margin_top = 70.0
margin_right = 540.0
margin_bottom = 850.0
rect_min_size = Vector2( 540, 780 )
size_flags_vertical = 0
custom_constants/separation = 30

[node name="VBoxContainer" type="VBoxContainer" parent="CenterContainer/VBoxContainer"]
margin_right = 540.0
margin_bottom = 360.0
rect_min_size = Vector2( 540, 360 )

[node name="DuplicatePlayerText" type="Label" parent="CenterContainer/VBoxContainer/VBoxContainer"]
margin_top = 43.0
margin_right = 540.0
margin_bottom = 133.0
rect_min_size = Vector2( 540, 80 )
size_flags_vertical = 6
text = "You have a Name conflict with another player, and the other player was in the Lobby first."
align = 1
valign = 1
autowrap = true
__meta__ = {
"_edit_use_anchors_": false
}

[node name="ChangeNameText" type="Label" parent="CenterContainer/VBoxContainer/VBoxContainer"]
margin_top = 232.0
margin_right = 540.0
margin_bottom = 312.0
rect_min_size = Vector2( 540, 80 )
size_flags_vertical = 6
text = "Please change your name."
align = 1
valign = 1
autowrap = true
__meta__ = {
"_edit_use_anchors_": false
}

[node name="PlayerName" type="LineEdit" parent="CenterContainer/VBoxContainer"]
margin_left = 120.0
margin_top = 390.0
margin_right = 420.0
margin_bottom = 470.0
rect_min_size = Vector2( 300, 80 )
size_flags_horizontal = 4
size_flags_vertical = 2
theme = ExtResource( 1 )
align = 1
max_length = 10
expand_to_text_length = true

[node name="Accept" type="Button" parent="CenterContainer/VBoxContainer"]
margin_left = 180.0
margin_top = 600.0
margin_right = 360.0
margin_bottom = 680.0
rect_min_size = Vector2( 180, 80 )
size_flags_horizontal = 4
size_flags_vertical = 2
text = "Accept"
